…
                     sheet = "Mr. Trash Wheel",
                     range = "A2:N550",
                     col_names = TRUE) %>%
janitor::clean_names() %>%
drop_na() %>%
mutate(sports_balls = as.integer(round(sports_balls, digits = 0)), 
       dumpster = as.numeric(dumpster), 
       year = as.numeric(year), 
       homes_powered = as.integer(round(homes_powered, digits = 0)), 
       name = "mr. trash wheel") %>%
select(name, everything())
Mr_data
```

    ## # A tibble: 486 × 15
    ##    name  dumps…¹ month  year date                weigh…² volum…³ plast…⁴ polys…⁵
    ##    <chr>   <dbl> <chr> <dbl> <dttm>                <dbl>   <dbl>   <dbl>   <dbl>
    ##  1 mr. …       1 May    2014 2014-05-16 00:00:00    4.31      18    1450    1820
    ##  2 mr. …       2 May    2014 2014-05-16 00:00:00    2.74      13    1120    1030
    ##  3 mr. …       3 May    2014 2014-05-16 00:00:00    3.45      15    2450    3100
    ##  4 mr. …       4 May    2014 2014-05-17 00:00:00    3.1       15    2380    2730
    ##  5 mr. …       5 May    2014 2014-05-17 00:00:00    4.06      18     980     870
    ##  6 mr. …       6 May    2014 2014-05-20 00:00:00    2.71      13    1430    2140
    ##  7 mr. …       7 May    2014 2014-05-21 00:00:00    1.91       8     910    1090
    ##  8 mr. …       8 May    2014 2014-05-28 00:00:00    3.7       16    3580    4310
    ##  9 mr. …       9 June   2014 2014-06-05 00:00:00    2.52      14    2400    2790
    ## 10 mr. …      10 June   2014 2014-06-11 00:00:00    3.76      18    1340    1730
    ## # … with 476 more rows, 6 more variables: cigarette_butts <dbl>,
    ## #   glass_bottles <dbl>, grocery_bags <dbl>, chip_bags <dbl>,
    ## #   sports_balls <int>, homes_powered <int>, and abbreviated variable names
    ## #   ¹​dumpster, ²​weight_tons, ³​volume_cubic_yards, ⁴​plastic_bottles,
    ## #   ⁵​polystyrene
…
drop_na() %>%
janitor::clean_names() %>%
mutate(homes_powered = as.integer(round(homes_powered, digits = 0)), 
       name = "professor trash wheel") %>%
select(name, everything())
Professor_data
```

    ## # A tibble: 82 × 14
    ##    name  dumps…¹ month  year date                weigh…² volum…³ plast…⁴ polys…⁵
    ##    <chr>   <dbl> <chr> <dbl> <dttm>                <dbl>   <dbl>   <dbl>   <dbl>
    ##  1 prof…       1 Janu…  2017 2017-01-02 00:00:00    1.79      15    1950    6080
    ##  2 prof…       2 Janu…  2017 2017-01-30 00:00:00    1.58      15    9540   11230
    ##  3 prof…       3 Febr…  2017 2017-02-26 00:00:00    2.32      18    8350    9210
    ##  4 prof…       4 Febr…  2017 2017-02-26 00:00:00    3.72      15    8590    1030
    ##  5 prof…       5 Febr…  2017 2017-02-28 00:00:00    1.45      15    7830    9950
    ##  6 prof…       6 March  2017 2017-03-30 00:00:00    1.71      15    8210   10340
    ##  7 prof…       7 April  2017 2017-04-01 00:00:00    1.82      15    9830   11020
    ##  8 prof…       8 April  2017 2017-04-20 00:00:00    2.37      15    9240    8760
    ##  9 prof…       9 May    2017 2017-05-10 00:00:00    2.64      15    9540    8810
    ## 10 prof…      10 May    2017 2017-05-26 00:00:00    2.78      15    8230    7800
    ## # … with 72 more rows, 5 more variables: cigarette_butts <dbl>,
    ## #   glass_bottles <dbl>, grocery_bags <dbl>, chip_bags <dbl>,
    ## #   homes_powered <int>, and abbreviated variable names ¹​dumpster,
    ## #   ²​weight_tons, ³​volume_cubic_yards, ⁴​plastic_bottles, ⁵​polystyrene
…
    ## [1] 568

``` r
ncol(wheel_data)
```

    ## [1] 15

``` r
wheel_data
```

    ## # A tibble: 568 × 15
    ##    name  dumps…¹ month  year date                weigh…² volum…³ plast…⁴ polys…⁵
    ##    <chr>   <dbl> <chr> <dbl> <dttm>                <dbl>   <dbl>   <dbl>   <dbl>
    ##  1 mr. …       1 May    2014 2014-05-16 00:00:00    4.31      18    1450    1820
    ##  2 mr. …       2 May    2014 2014-05-16 00:00:00    2.74      13    1120    1030
    ##  3 mr. …       3 May    2014 2014-05-16 00:00:00    3.45      15    2450    3100
    ##  4 mr. …       4 May    2014 2014-05-17 00:00:00    3.1       15    2380    2730
    ##  5 mr. …       5 May    2014 2014-05-17 00:00:00    4.06      18     980     870
    ##  6 mr. …       6 May    2014 2014-05-20 00:00:00    2.71      13    1430    2140
    ##  7 mr. …       7 May    2014 2014-05-21 00:00:00    1.91       8     910    1090
    ##  8 mr. …       8 May    2014 2014-05-28 00:00:00    3.7       16    3580    4310
    ##  9 mr. …       9 June   2014 2014-06-05 00:00:00    2.52      14    2400    2790
    ## 10 mr. …      10 June   2014 2014-06-11 00:00:00    3.76      18    1340    1730
    ## # … with 558 more rows, 6 more variables: cigarette_butts <dbl>,
    ## #   glass_bottles <dbl>, grocery_bags <dbl>, chip_bags <dbl>,
    ## #   sports_balls <int>, homes_powered <int>, and abbreviated variable names
    ## #   ¹​dumpster, ²​weight_tons, ³​volume_cubic_yards, ⁴​plastic_bottles,
    ## #   ⁵​polystyrene
…
